{
  "asr_shortcut": {
	"shortcut_with_nlu_intent_mapping": [
		{
			"sentence" :  "previous song",
			"sentence_conf" : 9000,
			"domain" : "music",
			"intent" : "mediamusic:na:song",
			"slots" : [
				{
					"name":"which",
					"value":"previous"
				}
			]
		},
		{
			"sentence" :  "previous tune",
			"sentence_conf" : 9000,
			"domain" : "general",
			"intent" : "generic:na",
			"slots" : [
				{
					"name":"which",
					"value":"previous"
				}
			]
		},
		{
			"sentence" :  "next song",
			"sentence_conf" : 9000,
			"domain" : "music",
			"intent" : "mediamusic:na:song",
			"slots" : [
				{
					"name":"which",
					"value":"next"
				}
			]
		},
		{
			"sentence" :  "next tune",
			"sentence_conf" : 9000,
			"domain" : "generic",
			"intent" : "generic:na",
			"slots" : [
				{
					"name":"which",
					"value":"next"
				}
			]
		},
		{
			"sentence" :  "pause music",
			"sentence_conf" : 9000,
			"domain" : "media_general",
			"intent" : "media:pause",
			"slots" : []
		},
		{
			"sentence" :  "resume music",
			"sentence_conf" : 9000,
			"domain" : "media_general",
			"intent" : "media:resume",
			"slots" : []
		},
		{
			"sentence" :  "stop music",
			"sentence_conf" : 9000,
			"domain" : "music",
			"intent" : "mediamusic:stop",
			"slots" : []
		},
		{
			"sentence" :  "volume up",
			"sentence_conf" : 9000,
			"domain" : "command_and_control",
			"intent" : "settings_and_control:increase:volume",
			"slots" : []
		},
		{
			"sentence" :  "volume down",
			"sentence_conf" : 9000,
			"domain" : "command_and_control",
			"intent" : "settings_and_control:decrease:volume",
			"slots" : []
		},
		{
			"sentence" :  "open map",
			"sentence_conf" : 9000,
			"domain" : "ude",
			"intent" : "ude:get_map",
			"slots" : []
		},
		{
			"sentence" :  "zoom in the map",
			"sentence_conf" : 9000,
			"domain" : "ude",
            "intent" : "locations:increase:zoom",
			"slots" : []
		},
		{
			"sentence" :  "zoom out the map",
			"sentence_conf" : 9000,
			"domain" : "ude",
            "intent" : "locations:decrease:zoom",
			"slots" : []
		},
		{
			"sentence" :  "close map",
			"sentence_conf" : 9000,
			"domain" : "web_app",
			"intent" : "web_app:close:app",
			"slots" : [{
			  "name":"app",
			  "value":"map"
			}]
		}
	]
  }
}
