
{
    "version": "VoConHigh 1.0",
    "context":
    {
        "name": "emergency_condition_ctx",
        "type": "static",
        "static": {
        "filename": "emergency_condition.fcf",
        "do_crc_check": "true"
        },
        "vocon_parameters": {
        "LH_CTX_PARAM_TIMEOUT_SPEECH": 8000,
        "LH_CTX_PARAM_TSILENCE": 800,
        "LH_CTX_PARAM_TSILENCE_FX": 500,
        "LH_CTX_PARAM_MAXNBEST": 5,
        "LH_CTX_PARAM_ACCURACY": 5000,
        "LH_CTX_PARAM_MAXNBEST_SECONDPASS": 20
        }
    }
}
